l3/z1/simple.vcd
$date
  Thu Apr 22 10:35:58 2021
$end
$version
  GHDL v0
$end
$timescale
  1 fs
$end
$scope module standard $end
$upscope $end
$scope module std_logic_1164 $end
$upscope $end
$scope module numeric_std $end
$upscope $end
$scope module simple_tb $end
$var reg 1 ! clk $end
$var reg 1 " rst $end
$var reg 8 # qq[7:0] $end
$scope module uut $end
$var reg 1 $ clk $end
$var reg 1 % rst $end
$var reg 8 & q[7:0] $end
$upscope $end
$upscope $end
$enddefinitions $end
#0
0!
0"
b10100000 #
0$
0%
b10100000 &
#10000000
1!
1$
#20000000
0!
0$
#30000000
1!
1$
#40000000
0!
0$
#50000000
1!
1$
#60000000
0!
0$
#70000000
1!
1$
#80000000
0!
0$
#90000000
1!
1$
#100000000
0!
1"
0$
1%
#110000000
1!
b10100001 #
1$
b10100001 &
#120000000
0!
0$
#130000000
1!
b10100010 #
1$
b10100010 &
#140000000
0!
0$
#150000000
1!
b10100011 #
1$
b10100011 &
#160000000
0!
0$
#170000000
1!
b10100100 #
1$
b10100100 &
#180000000
0!
0$
#190000000
1!
b10100101 #
1$
b10100101 &
#200000000
0!
0$
#210000000
1!
b10100110 #
1$
b10100110 &
#220000000
0!
0$
#230000000
1!
b10100111 #
1$
b10100111 &
#240000000
0!
0$
#250000000
1!
b10101000 #
1$
b10101000 &
#260000000
0!
0$
#270000000
1!
b10101001 #
1$
b10101001 &
#280000000
0!
0$
#290000000
1!
b10101010 #
1$
b10101010 &
#300000000
0!
0$
#310000000
1!
b10101011 #
1$
b10101011 &
#320000000
0!
0$
#330000000
1!
b10101100 #
1$
b10101100 &
#340000000
0!
0$
#350000000
1!
b10101101 #
1$
b10101101 &
#360000000
0!
0$
#370000000
1!
b10101110 #
1$
b10101110 &
#380000000
0!
0$
#390000000
1!
b10101111 #
1$
b10101111 &
#400000000
0!
0$
#410000000
1!
b10110000 #
1$
b10110000 &
#420000000
0!
0$
#430000000
1!
b10110001 #
1$
b10110001 &
#440000000
0!
0$
#450000000
1!
b10110010 #
1$
b10110010 &
#460000000
0!
0$
#470000000
1!
b10110011 #
1$
b10110011 &
#480000000
0!
0$
#490000000
1!
b10110100 #
1$
b10110100 &
#500000000
0!
0$
#510000000
1!
b10110101 #
1$
b10110101 &
#520000000
0!
0$
#530000000
1!
b10110110 #
1$
b10110110 &
#540000000
0!
0$
#550000000
1!
b10110111 #
1$
b10110111 &
#560000000
0!
0$
#570000000
1!
b10111000 #
1$
b10111000 &
#580000000
0!
0$
#590000000
1!
b10111001 #
1$
b10111001 &
#600000000
0!
0$
#610000000
1!
b10111010 #
1$
b10111010 &
#620000000
0!
0$
#630000000
1!
b10111011 #
1$
b10111011 &
#640000000
0!
0$
#650000000
1!
b10111100 #
1$
b10111100 &
#660000000
0!
0$
#670000000
1!
b10111101 #
1$
b10111101 &
#680000000
0!
0$
#690000000
1!
b10111110 #
1$
b10111110 &
#700000000
0!
0$
#710000000
1!
b10111111 #
1$
b10111111 &
#720000000
0!
0$
#730000000
1!
b11000000 #
1$
b11000000 &
#740000000
0!
0$
#750000000
1!
b11000001 #
1$
b11000001 &
#760000000
0!
0$
#770000000
1!
b11000010 #
1$
b11000010 &
#780000000
0!
0$
#790000000
1!
b11000011 #
1$
b11000011 &
#800000000
0!
0"
b10100000 #
0$
0%
b10100000 &
#810000000
1!
1$
#820000000
0!
0$
#830000000
1!
1$
#840000000
0!
0$
#850000000
1!
1"
b10100001 #
1$
1%
b10100001 &
#860000000
0!
0$
#870000000
1!
b10100010 #
1$
b10100010 &
#880000000
0!
0$
#890000000
1!
b10100011 #
1$
b10100011 &
#900000000
0!
0$
#910000000
1!
b10100100 #
1$
b10100100 &
#920000000
0!
0$
#930000000
1!
b10100101 #
1$
b10100101 &
#940000000
0!
0$
#950000000
1!
b10100110 #
1$
b10100110 &
#960000000
0!
0$
#970000000
1!
b10100111 #
1$
b10100111 &
#980000000
0!
0$
#990000000
1!
b10101000 #
1$
b10101000 &
#1000000000
0!
0$
#1010000000
1!
b10101001 #
1$
b10101001 &
#1020000000
0!
0$
#1030000000
1!
b10101010 #
1$
b10101010 &
#1040000000
0!
0$
#1050000000
1!
b10101011 #
1$
b10101011 &
#1060000000
0!
0$
#1070000000
1!
b10101100 #
1$
b10101100 &
#1080000000
0!
0$
#1090000000
1!
b10101101 #
1$
b10101101 &
#1100000000
0!
0$
#1110000000
1!
b10101110 #
1$
b10101110 &
#1120000000
0!
0$
#1130000000
1!
b10101111 #
1$
b10101111 &
#1140000000
0!
0$
#1150000000
1!
b10110000 #
1$
b10110000 &
#1160000000
0!
0$
#1170000000
1!
b10110001 #
1$
b10110001 &
#1180000000
0!
0$
#1190000000
1!
b10110010 #
1$
b10110010 &
#1200000000
0!
0$
#1210000000
1!
b10110011 #
1$
b10110011 &
#1220000000
0!
0$
#1230000000
1!
b10110100 #
1$
b10110100 &
#1240000000
0!
0$
#1250000000
1!
b10110101 #
1$
b10110101 &
#1260000000
0!
0$
#1270000000
1!
b10110110 #
1$
b10110110 &
#1280000000
0!
0$
#1290000000
1!
0"
b10100000 #
1$
0%
b10100000 &
