l2/example_tb.vcd
$date
  Tue Apr  6 18:42:17 2021
$end
$version
  GHDL v0
$end
$timescale
  1 fs
$end
$scope module standard $end
$upscope $end
$scope module std_logic_1164 $end
$upscope $end
$scope module numeric_std $end
$upscope $end
$scope module example_tb $end
$var reg 1 ! a $end
$var reg 1 " b $end
$var reg 1 # c $end
$var reg 3 $ abc[2:0] $end
$var reg 1 % x $end
$scope module uut $end
$var reg 1 & a $end
$var reg 1 ' b $end
$var reg 1 ( c $end
$var reg 1 ) x $end
$var reg 1 * not_or $end
$var reg 1 + or_or $end
$var reg 1 , or_not $end
$scope module g1 $end
$upscope $end
$scope module g2 $end
$upscope $end
$scope module g3 $end
$upscope $end
$scope module g4 $end
$upscope $end
$upscope $end
$upscope $end
$enddefinitions $end
#0
0!
0"
0#
b000 $
U%
0&
0'
0(
U)
U*
U+
U,
#100000000
#200000000
1#
1(
#210000000
1"
0#
1'
0(
#220000000
1#
1(
#230000000
1!
0"
0#
1&
0'
0(
#240000000
1#
1(
#250000000
1"
0#
1'
0(
#260000000
1#
1(
#360000000
0!
0"
0#
b001 $
0&
0'
0(
#370000000
1#
b010 $
1(
#380000000
1"
0#
b011 $
1'
0(
#390000000
1#
b100 $
1(
#400000000
1!
0"
0#
b101 $
1&
0'
0(
#410000000
1#
b110 $
1(
#420000000
1"
0#
b111 $
1'
0(
